<?xml version="1.0" encoding="UTF-8" standalone="no"?>
<!DOCTYPE svg PUBLIC "-//W3C//DTD SVG 1.0//EN"
"http://www.w3.org/TR/2001/REC-SVG-20010904/DTD/svg10.dtd">
<!-- Created with Inkscape ("http://www.inkscape.org/") -->
<svg
   xmlns="http://www.w3.org/2000/svg"
   xmlns:xlink="http://www.w3.org/1999/xlink"
   version="1.0"
   x="0"
   y="0"
   width="744.094482"
   height="1052.36218"
   id="svg1">
  <defs
     id="defs3" />
  <g
     style="font-size:12;"
     id="g594">
    <path
       d="M 149.802 390.567 C 150.076 390.293 150.335 390.005 150.611 389.731 C 148.546 391.904 149.644 390.917 152.199 385.538 C 153.773 380.386 156.011 376.557 156.992 371.269 C 161.108 366.072 163.49 360.844 166.551 355.312 C 169.54 349.492 173.136 344.128 176.934 338.522 C 181.641 333.309 185.553 328.385 188.889 322.581 C 193.076 317.688 195.951 313.175 200.065 308.297 C 202.968 304.634 204.585 301.428 208.035 298.237 C 213.711 293.541 219.573 288.36 225.58 284.803 C 230.229 281.612 235.241 279.197 239.947 276.4 C 244.914 273.011 250.719 270.382 255.902 267.176 C 261.867 265.263 267.238 262.041 273.447 260.461 C 277.288 258.257 281.735 257.543 286.211 256.25 C 291.077 255.507 294.587 253.819 299.77 253.744 C 311.77 251.221 325.747 252.893 338.063 252.893 C 357.47 252.893 376.877 252.893 396.283 252.893 C 412.412 255.461 428.295 257.208 444.15 261.296 C 452.221 262.998 460.178 265.399 468.076 267.176 C 471.786 269.122 474.819 269.942 478.443 272.207 C 487.772 276.841 497.533 281.658 507.164 284.803 C 514.124 290.138 521.877 295.729 529.501 299.909 C 537.428 304.057 544.736 308.51 552.634 312.506 C 560.517 315.485 566.091 319.328 572.574 325.088 C 577.094 329.844 581.613 334.601 586.134 339.357 C 589.627 344.448 592.732 347.548 595.706 352.791 C 599.561 359.933 603.692 367.029 608.471 373.776 C 612.283 380.158 615.951 386.646 620.441 393.09 C 625.163 399.427 630.333 405.794 634 412.403 C 636.079 415.459 637.681 416.841 637.985 420.792 C 641.133 423.785 642.822 429.18 644.367 433.389 C 644.959 438.191 645.508 443.693 647.558 447.658 C 649.551 452.05 649.811 457.429 649.955 462.763 C 651.631 469.465 651.544 475.77 651.544 482.912 C 651.544 488.52 651.905 494.629 650.75 499.704 C 650.475 506.908 649.306 513.502 649.147 520.69 C 649.147 523.775 649.147 526.844 649.147 529.929 C 647.443 532.922 647.558 535.825 646.764 539.152 C 646.361 543.879 645.971 548.346 645.971 553.421 C 645.912 558.375 645.162 562.722 645.162 567.705 C 645.162 571.901 645.162 576.094 645.162 580.288 C 642.953 586.108 643.573 592.232 643.573 598.766 C 643.573 604.632 643.573 610.512 643.573 616.393 C 643.573 621.53 643.834 626.636 642.78 631.498 C 642.491 637.835 641.638 643.717 641.176 649.962 C 639.559 652.803 639.588 654.079 639.588 657.529 C 638.172 661.404 637.668 666.571 637.192 670.947 C 635.472 673.956 635.588 676.858 634.794 680.186 C 634.505 687.07 633.465 693.498 633.206 700.336 C 631.343 703.846 631.155 707.782 630.809 712.082 C 630.304 717.765 629.798 723.495 629.206 728.874 C 627.344 734.328 626.868 738.98 626.824 744.829 C 626.217 750.208 625.451 755.847 623.632 760.77 C 623.531 764.326 622.823 767.395 622.03 770.845 C 613.713 770.039 605.583 766.833 597.31 764.128 C 589.108 763.657 581.743 763.141 574.177 760.77 C 569.022 760.512 564.445 759.935 559.016 759.935 C 550.771 759.935 542.525 759.935 534.281 759.935 C 522.585 759.935 510.889 759.935 499.192 759.935 C 489.547 759.935 480.061 759.63 470.473 759.098 C 465.332 756.971 462.444 756.499 456.915 755.739 C 450.72 755.451 444.742 754.342 438.562 754.069 C 433.306 751.288 429.45 750.999 423.415 750.71 C 417.235 750.346 411.272 749.267 405.063 749.024 C 397.972 745.908 392.846 745.666 385.121 745.666 C 371.577 742.307 358.408 740.438 344.446 739.784 C 330.251 736.441 316.072 734.04 301.372 733.068 C 295.063 731.077 288.175 730.379 281.417 729.709 C 269.505 727.476 257.925 725.5 245.535 724.68 C 235.831 721.884 226.173 720.835 216.021 719.649 C 212.946 718.889 210.447 718.799 207.242 718.799 C 202.837 716.489 200.196 715.85 195.272 715.44 C 189.697 714.863 184.168 714.164 178.521 713.769 C 172.674 711.383 165.887 711.337 159.375 710.411 C 148.56 709.195 138.496 707.007 127.478 706.216 C 120.706 705.244 115.191 703.694 108.332 703.694 C 102.859 701.703 96.5495 701.627 90.7739 700.336 C 88.1881 698.694 88.3904 700.093 88.3904 696.142 C 88.3904 687.738 88.3904 679.35 88.3904 670.947 C 88.3904 662.559 88.3904 654.171 88.3904 645.767 C 88.3904 636.969 88.5062 628.291 89.1849 619.752 C 89.9647 614.327 90.7153 608.857 90.7739 602.96 C 92.8085 599.086 92.8818 594.8 93.9637 590.363 C 96.592 582.126 98.137 574.332 101.95 566.855 C 103.999 559.805 106.931 553.209 110.714 546.72 C 113.357 540.459 116.085 534.123 118.699 527.406 C 121.327 521.084 123.681 514.429 125.875 508.093 C 125.875 507.53 125.875 506.983 125.875 506.421 "
       style="fill:#aaddff;fill-opacity:0.666667;fill-rule:evenodd;stroke:#000000;stroke-width:14.8129pt;"
       id="path575" />
    <path
       d="M 230.388 349.417 C 230.388 349.128 230.388 348.855 230.388 348.566 C 230.388 351.18 230.302 349.706 231.991 344.372 C 235.197 337.671 239.398 331.243 242.359 324.222 C 246.488 317.506 250.401 311.609 255.917 305.76 C 263.541 302.781 271.411 299.513 279.05 295.684 C 282.745 293.8 286.558 292.189 290.211 290.654 C 295.756 290.654 299.741 290.35 304.578 293.162 C 311.567 296.489 318.801 300.394 325.313 304.923 C 332.865 308.783 338.179 313.722 341.269 321.715 C 344.041 325.423 344.287 328.872 345.255 333.461 C 346.914 340.77 347.089 348.399 350.048 355.283 L 345.255 333.461 C 346.914 340.77 347.089 348.399 350.048 355.283 "
       style="fill:#ffffff;fill-rule:evenodd;stroke:#000000;stroke-width:14.8129pt;"
       id="path588" />
    <path
       d="M 391.518 364.521 C 391.518 363.686 391.518 362.85 391.518 362 C 391.518 368.867 391.518 359.552 391.518 357.805 C 395.706 350.799 398.16 343.339 401.091 335.148 C 403.185 332.641 403.661 330.088 405.077 326.745 C 409.596 321.776 412.556 316.093 416.253 310.789 C 419.545 306.518 421.495 303.115 426.62 301.564 C 433.594 299.832 441.305 299.878 448.958 299.878 C 456.279 303.419 463.21 307.811 470.488 311.64 C 477.231 313.585 482.487 315.621 487.237 320.864 C 490.544 326.06 493.952 331.272 495.223 337.656 C 496.869 343.87 498.703 349.386 499.207 356.134 C 502.008 361.68 502.211 368.412 503.987 374.596 C 505.041 377.893 504.795 381.723 504.795 385.507 "
       style="fill:#ffffff;fill-rule:evenodd;stroke:#000000;stroke-width:14.8129pt;"
       id="path589" />
    <path
       d="M 637.177 488.809 C 636.916 488.809 636.642 488.809 636.383 488.809 C 638.505 488.809 637.393 488.976 633.986 486.286 C 629.467 480.133 625.207 474.525 619.632 468.659 C 613.005 462.261 605.886 457.384 598.897 451.868 C 591.085 443.647 583.101 436.018 574.956 428.36 C 568.112 423.952 561.976 419.774 555.016 415.762 C 544.418 409.516 534.151 404.487 523.12 399.822 C 512.997 394.67 502.716 390.066 492.002 385.553 C 488.219 383.561 484.956 382.437 480.841 381.344 C 477.505 377.849 479.57 378.836 474.459 378.836 C 466.055 376.86 458.127 374.171 449.723 372.119 C 439.616 370.751 431.573 368.64 421.812 365.403 C 409.972 364.779 398.059 363.913 386.71 361.209 C 381.065 360.222 375.505 359.523 369.961 358.686 C 366.148 356.498 361.86 356.422 357.196 356.164 C 349.037 356.012 341.311 354.948 333.27 354.492 C 328.953 352.608 325.342 352.806 320.505 352.806 C 314.051 351.559 308.332 350.283 301.358 350.283 C 291.524 350.283 281.677 350.283 271.844 350.283 C 262.834 350.618 254.531 351.969 245.521 351.969 C 239.587 353.717 233.608 354.188 227.168 354.492 C 221.941 356.742 217.162 358.397 211.227 358.686 C 207.588 361.482 203.4 362.82 199.256 365.403 C 190.795 367.287 182.233 369.111 175.33 373.792 C 166.624 378.882 157.715 383.79 149.007 388.911 C 142.798 393.196 138.668 396.569 134.64 403.18 C 128.084 413.331 124.489 424.257 121.081 435.912 C 119.913 443.008 118.8 449.619 118.684 456.897 C 116.749 460.165 117.097 462.946 117.097 466.973 C 117.168 475.285 118.107 481.788 121.875 488.809 C 125.427 498.124 130.034 506.908 134.64 515.661 C 139.564 524.275 145.932 532.072 150.596 540.855 C 157.498 548.848 163.49 556.841 168.948 566.035 C 176.095 573.571 181.554 581.626 188.889 588.691 C 195.358 592.323 202.101 597.399 208.83 601.289 C 216.829 607.23 224.381 611.197 233.55 614.723 C 240.972 618.824 247.961 621.195 255.889 623.11 C 262.573 624.736 269.259 627.167 275.829 629.827 C 287.251 632.775 297.46 635.722 309.329 636.544 C 317.111 638.853 324.432 639.871 332.461 640.737 C 339.912 642.302 346.149 643.26 354.005 643.26 C 365.975 643.26 377.931 643.26 389.901 643.26 C 400.008 643.26 410.102 643.26 420.209 643.26 C 429.393 643.26 438.158 641.923 447.327 641.588 C 454.099 639.325 459.946 637.546 467.267 637.394 C 471.411 636.148 475.426 636.3 479.237 634.036 C 490.023 631.149 500.32 627.533 511.15 624.796 C 518.571 622.548 526.094 620.739 533.487 618.081 C 538.469 615.239 543.075 614.342 547.839 611.364 C 553.73 609.465 558.713 605.666 563.795 602.125 C 571.55 595.24 579.303 587.992 587.721 581.974 C 593.381 576.915 599.561 573.237 605.28 567.705 C 611.257 562.19 615.69 556.248 619.632 549.243 C 622.319 543.636 625.913 538.074 629.206 532.451 C 631.617 526.313 635.04 521.146 637.985 514.824 C 640.786 509.323 642.418 504.035 643.559 498.033 C 644.325 492.745 646.287 488.732 647.544 483.764 C 649.826 478.643 652.021 473.097 654.735 467.808 C 657.537 461.061 660.251 455.575 664.309 449.345 C 667.311 444.255 670.576 439.969 673.868 435.076 C 677.924 431.749 680.986 428.937 685.837 428.36 C 692.191 428.36 695.743 428.496 700.998 431.718 C 704.132 435.973 706.731 439.772 707.381 445.151 C 708.58 448.905 708.782 453.858 709.764 457.748 C 709.937 462.702 711.048 466.973 711.367 472.017 C 711.367 477.048 711.367 482.092 711.367 487.123 C 711.367 491.833 710.846 494.887 709.764 498.869 C 708.262 501.255 707.511 500.039 705.779 502.227 C 703.353 507.56 700.956 512.013 697.807 516.511 C 696.104 520.659 695.484 524.109 693.014 528.257 C 691.743 532.984 689.563 536.995 688.235 541.691 C 685.982 545.565 683.398 549.578 681.058 553.437 C 676.495 554.911 672.612 556.614 667.499 556.795 C 662.663 553.437 659.37 550.686 657.117 545.049 C 655.039 541.189 653.926 539.73 653.926 534.974 C 653.132 528.515 652.685 521.602 650.735 515.661 C 649.913 508.534 647.356 503.397 644.353 497.196 C 641.638 494.34 639.848 491.879 637.177 488.809 z "
       style="fill:#ffddaa;fill-rule:evenodd;stroke:#000000;stroke-width:14.8129pt;"
       id="path571" />
    <path
       d="M 329.284 449.33 C 322.107 449.33 314.932 449.33 307.74 449.33 C 302.167 449.33 296.579 449.33 290.991 449.33 C 286.109 447.567 279.554 446.185 275.049 443.464 C 271.339 441.474 266.892 440.121 263.079 438.419 C 257.274 437.295 252.308 434.94 246.33 433.389 C 240.814 431.581 236.236 429.849 230.374 429.18 C 223.472 427.63 217.278 425.685 210.433 424.151 C 204.643 421.628 199.834 421.081 193.683 419.957 C 189.813 419.135 186.883 418.269 182.507 418.269 C 178.854 419.409 175.562 421.628 172.139 423.315 C 168.155 425.625 163.865 428.283 160.978 431.703 C 158.912 437.311 156.313 442.324 155.39 448.495 C 153.946 453.493 153.499 457.171 154.595 462.763 C 156.271 468.643 158.162 471.38 162.567 475.36 C 169.367 477.898 175.764 480.421 182.507 482.912 C 187.07 484.6 190.867 485.633 195.272 487.943 C 199.69 489.492 202.506 490.876 206.448 492.987 C 211.992 493.505 215.891 495.464 221.595 495.51 C 226.865 496.68 231.226 497.181 236.756 497.181 C 241.535 497.181 246.33 497.181 251.109 497.181 C 256.711 494.113 261.39 493.139 267.859 492.987 C 273.707 492.987 279.569 492.987 285.418 492.987 C 291.524 492.987 297.647 492.987 303.756 492.987 C 308.275 492.987 312.794 492.987 317.314 492.987 C 320.895 493.064 324.115 493.747 327.696 493.824 "
       style="fill:#ffddaa;fill-rule:evenodd;stroke:#000000;stroke-width:14.8129pt;"
       id="path574" />
    <path
       d="M 412.253 353.611 C 412.975 352.273 416.658 347.304 419.444 344.372 C 422.549 341.272 423.443 341.347 426.62 344.372 C 426.62 348.293 426.62 352.213 426.62 356.134 "
       style="fill:#ffffff;fill-rule:evenodd;stroke:#000000;stroke-width:14.8129pt;"
       id="path590" />
    <path
       d="M 268.682 325.073 C 268.682 326.79 267.96 333.461 267.872 337.656 C 264.306 340.481 264.278 337.594 265.49 334.297 C 268.523 332.535 271.15 330.802 274.255 331.79 "
       style="fill:#ffffff;fill-rule:evenodd;stroke:#000000;stroke-width:14.8129pt;"
       id="path591" />
    <path
       d="M 579.794 586.108 C 578.725 586.108 577.671 586.108 576.603 586.108 C 582.509 586.108 580.835 585.895 571.809 587.794 C 563.839 590.485 558.958 592.673 549.485 592.825 C 539.176 596.016 528.837 599.268 519.164 602.9 C 509.07 602.9 498.962 602.9 488.855 602.9 C 476.927 602.9 464.74 602.763 453.752 604.586 C 437.812 604.586 421.856 604.586 405.9 604.586 C 399.127 604.586 393.28 603.751 386.754 602.9 C 376.704 596.684 365.455 595.135 353.254 594.511 C 341.832 591.077 329.356 588.737 318.151 582.75 C 308.029 579.361 300.55 573.633 289.431 572.69 C 286.601 570.442 283.424 570.731 279.857 569.332 "
       style="fill:none;fill-opacity:0.75;fill-rule:evenodd;stroke:#000000;stroke-width:14.8129pt;"
       id="path593" />
  </g>
</svg>
