<?xml version="1.0" encoding="UTF-8" standalone="no"?>
<!DOCTYPE svg PUBLIC "-//W3C//DTD SVG 1.0//EN"
"http://www.w3.org/TR/2001/REC-SVG-20010904/DTD/svg10.dtd">
<!-- Created with Inkscape ("http://www.inkscape.org/") -->
<svg
   xmlns="http://www.w3.org/2000/svg"
   xmlns:xlink="http://www.w3.org/1999/xlink"
   version="1.0"
   x="0"
   y="0"
   width="62.5000000"
   height="62.5000000"
   id="svg1">
  <defs
     id="defs3" />
  <path
     d="M 21.2865 6.213 C 21.7907 6.4039 21.9044 6.4206 22.1212 6.9285 C 22.2502 7.2824 22.2405 7.6044 22.2405 8.0018 C 22.2291 8.3818 22.0981 8.6324 21.8827 8.8962 C 21.5995 9.0175 21.4354 9.1225 21.1076 9.1347 C 20.6999 9.139 20.4849 9.2074 20.0939 9.075 C 19.7118 8.8157 19.6766 8.7025 19.6766 8.2403 C 19.6766 7.8844 19.6946 7.5537 19.7362 7.2266 C 20.0044 6.9321 20.1792 6.6608 20.5709 6.5707 C 20.9226 6.5488 20.9759 6.4648 21.2865 6.213 C 21.6936 6.4038 21.7481 6.4385 22.1212 6.2726 C 22.5514 6.268 22.9316 6.213 23.3734 6.213 C 23.7204 6.213 24.0749 6.2029 24.387 6.2726 C 24.7448 6.2726 25.1025 6.2726 25.4603 6.2726 C 25.8758 6.3272 26.2898 6.3804 26.7124 6.3919 C 27.1406 6.5016 27.5313 6.6143 27.9646 6.69 C 28.3661 6.7407 28.6397 6.9085 29.0378 6.9881 C 29.3657 7.0899 29.6649 7.2406 29.9919 7.3459 C 30.3097 7.5464 30.6403 7.7865 30.8863 8.0614 C 31.2533 8.3985 31.4124 8.7488 31.721 9.1347 C 31.8096 9.4003 31.7806 9.726 31.7806 10.0291 C 31.7806 10.3816 31.8044 10.7053 31.8403 11.0427 C 31.8403 11.4876 31.7483 11.7506 31.5421 12.116 C 31.4044 12.6209 31.2228 12.8195 30.8266 13.1892 C 30.3867 13.3844 29.9931 13.6341 29.5745 13.8451 C 29.185 14.0642 28.7341 14.3004 28.3223 14.501 C 27.8637 14.6865 27.3958 14.8241 26.8913 14.978 C 26.4552 15.1517 26.1176 15.3174 25.6988 15.5743 C 25.2909 15.6631 24.9247 15.7929 24.5063 15.8724 C 23.9967 15.9172 23.5796 16.0698 23.1349 16.2302 C 22.7328 16.37 22.4515 16.5018 22.1212 16.7072 C 21.7996 16.8131 21.4997 16.9937 21.1672 17.0649 C 20.7809 17.2712 20.5424 17.3898 20.2728 17.7208 C 20.0198 17.8812 19.8028 18.1631 19.5573 18.3171 C 19.2635 18.5374 18.9837 18.7468 18.9014 19.0922 C 18.7068 19.4402 18.6627 19.8241 18.6033 20.2251 C 18.5252 20.5031 18.484 20.7329 18.484 21.0599 C 18.3878 21.3828 18.3685 21.7707 18.3648 22.1331 C 18.3648 22.3716 18.3648 22.6101 18.3648 22.8486 C 18.6594 23.2876 18.8857 23.6953 19.2592 24.1008 C 19.5758 24.4175 19.8191 24.6677 20.2132 24.8163 C 20.5511 25.0884 20.9366 25.3417 21.2865 25.6511 C 21.6227 25.8496 21.8875 26.1777 22.2405 26.307 C 22.5051 26.4711 22.6778 26.514 22.956 26.6051 C 23.5271 26.9761 24.1464 27.2406 24.8044 27.3802 C 25.4769 27.5729 26.1345 27.7079 26.8317 27.7976 C 27.2514 27.9388 27.6736 27.9169 28.1435 27.9169 C 28.5461 27.8376 28.9759 27.7872 29.3956 27.738 C 29.8116 27.589 30.2236 27.4481 30.6477 27.261 C 31.0101 27.0182 31.2279 26.7141 31.4825 26.3666 C 31.6473 25.9438 31.674 25.4654 31.8403 25.0548 C 31.8403 24.8253 31.8371 24.714 31.721 24.5182 C 31.4157 24.3884 31.1557 24.1698 30.8266 24.1008 C 30.3996 24.1008 30.1128 24.0892 29.7534 24.2797 C 29.5401 24.5729 29.3855 24.708 29.336 25.0548 C 29.1282 25.3984 29.1072 25.7602 29.0975 26.1877 C 29.0975 26.4947 29.0341 26.6863 29.336 26.784 C 29.6427 26.9237 29.833 27.1846 30.1707 27.261 C 30.2585 27.3487 30.2023 27.3206 30.3496 27.3206 "
     style="font-size:12;fill:none;fill-opacity:0.75;fill-rule:evenodd;stroke:#000000;stroke-width:1pt;"
     id="path602" />
  <path
     d="M 20.6306 25.2933 C 20.6107 25.2734 20.5908 25.2536 20.5709 25.2337 C 20.7125 25.3753 20.6547 25.3078 20.3324 25.1144 C 20.0002 24.7989 19.7045 24.5117 19.4381 24.1604 C 19.1036 23.7715 19.0134 23.5363 18.961 23.0275 C 18.961 22.6245 18.956 22.3505 19.1399 22.0139 C 19.2403 21.7868 19.4372 21.5973 19.6766 21.358 C 20.0156 21.0628 20.346 20.8289 20.7498 20.7021 C 21.1001 20.5086 21.4093 20.4068 21.7635 20.1655 C 21.9445 20.1138 21.9365 20.0238 22.0616 19.8673 C 22.3617 19.787 22.6689 19.6854 22.956 19.5692 C 23.3505 19.5615 23.7338 19.5494 24.0889 19.45 C 24.4474 19.367 24.8307 19.3341 25.2218 19.3307 C 25.4887 19.2135 25.736 19.2115 26.0565 19.2115 C 26.2837 19.0738 26.5189 19.0959 26.7721 19.0326 C 27.2365 19.0068 27.5293 18.8693 27.9646 18.7345 C 28.3817 18.6615 28.6811 18.4887 29.0378 18.3171 C 29.2135 18.0975 29.2722 18.0917 29.5149 18.0189 C 29.7318 17.8309 29.8864 17.8758 30.0515 17.6612 C 30.393 17.4646 30.6467 17.2448 30.9459 16.9457 C 31.1777 16.6871 31.3915 16.2812 31.5421 15.932 C 31.788 15.5823 31.9644 15.2766 32.0788 14.8588 C 32.2174 14.5059 32.3053 14.2519 32.3173 13.8451 C 32.3173 13.4505 32.2784 13.0078 32.3769 12.6526 C 32.3769 12.2948 32.3769 11.9371 32.3769 11.5793 C 32.3498 11.2449 32.2576 11.0418 32.2576 10.6849 C 32.1217 10.342 31.9245 9.9687 31.8403 9.6117 C 31.7938 9.4337 31.73 9.2503 31.6614 9.075 "
     style="font-size:12;fill:none;fill-opacity:0.75;fill-rule:evenodd;stroke:#000000;stroke-width:1pt;"
     id="path603" />
  <path
     d="M 31.7806 11.7582 C 31.7806 11.7781 31.7806 11.798 31.7806 11.8178 C 31.7806 11.6249 31.7717 11.7404 31.9595 12.116 C 32.0907 12.5619 32.2273 12.9579 32.3173 13.4277 C 32.4783 13.8793 32.6043 14.4062 32.7943 14.8588 C 32.8737 15.0725 32.9906 15.3473 33.0924 15.5146 C 33.3232 15.8549 33.5094 16.1669 33.8079 16.4687 C 34.0173 16.671 34.072 16.6987 34.1657 16.9457 C 34.4778 17.1395 34.6885 17.3283 34.7023 17.7208 C 34.9034 17.9889 35.0466 17.9936 35.3582 18.0786 C 35.6673 18.2439 35.9352 18.282 36.1333 18.5556 C 36.4516 18.7774 36.5968 18.878 36.9681 18.973 C 37.4304 19.1113 37.8883 19.2888 38.3395 19.45 C 38.8314 19.6978 39.3275 19.9035 39.8302 20.1655 C 40.2731 20.3305 40.6453 20.4882 41.0227 20.7617 C 41.5564 21.2288 42.1199 21.607 42.6922 22.0139 C 43.1856 22.3862 43.5533 22.7176 43.9443 23.2064 C 44.3406 23.7867 44.8408 24.3248 45.1965 24.9356 C 45.5307 25.6101 45.8304 26.3141 46.0313 27.0225 C 46.2556 27.5161 46.3702 28.054 46.5083 28.5727 C 46.5757 29.0638 46.5679 29.5598 46.5679 30.0634 C 46.5679 30.5576 46.5668 30.9849 46.4486 31.4348 C 46.2475 31.889 46.0435 32.2714 45.7928 32.6869 C 45.5189 33.1172 45.2629 33.5017 44.8387 33.8198 C 44.4263 34.1426 44.0522 34.2972 43.527 34.3565 C 42.9121 34.6617 42.1033 34.7874 41.3804 34.9527 C 41.0673 35.1289 41.0275 35.1316 40.6649 35.1316 C 40.094 35.3463 39.6118 35.4582 38.9954 35.549 C 37.8227 35.549 36.6501 35.549 35.4775 35.549 C 34.7818 35.549 34.0862 35.549 33.3905 35.549 C 32.5345 35.549 31.6717 35.5194 30.8266 35.6086 C 29.972 35.6086 29.1173 35.6086 28.2627 35.6086 C 27.4677 35.6086 26.6727 35.6086 25.8777 35.6086 C 24.9236 35.6086 23.9696 35.6086 23.0156 35.6086 C 22.161 35.6086 21.3063 35.6086 20.4517 35.6086 C 19.7113 35.6086 18.9784 35.6168 18.2455 35.549 C 18.0025 35.3667 17.8933 35.3381 17.5896 35.3105 C 17.1565 35.1503 16.7296 35.0149 16.2779 34.8931 C 15.7947 34.6189 15.4013 34.373 14.9661 33.9987 C 14.4147 33.5925 13.9044 33.2166 13.4755 32.6869 C 12.9355 32.0682 12.3294 31.5368 11.7463 30.9578 C 11.4161 30.6105 11.1508 30.3106 10.9712 29.8845 C 10.7851 29.4208 10.7327 29.0867 10.7327 28.5727 C 10.7327 27.9964 10.7327 27.42 10.7327 26.8436 C 10.7327 26.2871 10.7327 25.7306 10.7327 25.1741 C 10.8543 24.7137 11.0687 24.3436 11.3289 23.9219 C 11.7551 23.4562 12.1261 23.0055 12.5811 22.5505 C 12.979 22.1422 13.3065 21.7462 13.7736 21.4176 C 14.3042 21.1675 14.8035 20.927 15.2642 20.5232 C 15.7495 20.3905 16.2724 20.1288 16.7549 19.927 C 17.2255 19.8105 17.7067 19.5918 18.1263 19.3903 C 18.4499 19.145 18.7775 18.8085 19.1399 18.6152 C 19.4337 18.354 19.7553 17.9821 20.0939 17.8401 C 20.1582 17.7972 20.1577 17.7537 20.2132 17.6612 "
     style="font-size:12;fill:none;fill-opacity:0.75;fill-rule:evenodd;stroke:#000000;stroke-width:1pt;"
     id="path604" />
  <path
     d="M 30.7074 17.3034 C 30.7074 17.3233 30.7074 17.3432 30.7074 17.3631 C 30.7074 17.2021 30.7035 17.284 30.767 17.6016 C 31.0983 17.9667 31.4691 18.2444 31.8999 18.4959 C 32.2293 18.7493 32.5598 19.1106 32.9135 19.3307 C 33.2803 19.635 33.6668 19.8397 34.1061 20.0462 C 34.5041 20.2115 34.8639 20.4261 35.2986 20.4636 C 35.7143 20.6497 36.0536 20.7635 36.4911 20.8214 C 36.8371 20.9433 37.1906 20.9741 37.5644 21.0599 C 37.9844 21.0914 38.3903 21.1573 38.8165 21.1791 C 39.1407 21.2764 39.4977 21.3327 39.8302 21.4176 C 40.1867 21.4842 40.5352 21.4772 40.9034 21.4772 C 41.243 21.6751 41.577 21.7246 41.9767 21.7754 C 42.3646 21.8909 42.7785 22.0371 43.1692 22.1928 C 43.5425 22.3432 43.9026 22.501 44.3021 22.5505 C 44.6612 22.6909 44.9505 22.815 45.3157 22.9083 C 45.7076 23.0522 46.0056 23.1887 46.4486 23.266 C 46.792 23.2906 46.9907 23.3853 47.343 23.3853 C 47.6854 23.4717 48.0962 23.4449 48.4759 23.4449 C 48.895 23.4216 49.2558 23.3517 49.6684 23.266 C 50.024 23.0561 50.2757 22.9195 50.384 22.4909 C 50.384 22.0506 50.3795 21.925 50.0858 21.5965 C 49.9149 21.279 49.5269 21.168 49.1914 21.0002 C 48.912 20.9159 48.6863 20.881 48.3567 20.881 C 47.9525 20.9739 47.8275 21.1118 47.82 21.5369 C 47.9009 22.0424 48.1716 22.3581 48.5356 22.7294 C 48.7385 22.9272 48.9148 23.0961 49.1318 23.1468 "
     style="font-size:12;fill:none;fill-opacity:0.75;fill-rule:evenodd;stroke:#000000;stroke-width:1pt;"
     id="path609" />
  <path
     d="M 17.6493 24.2797 C 17.6294 24.2797 17.6095 24.2797 17.5896 24.2797 C 17.6691 24.2797 17.4306 24.2797 17.3511 24.2797 C 16.9908 24.4921 16.8102 24.7777 16.6953 25.1741 C 16.6953 25.4795 16.6678 25.6157 16.8741 25.8299 C 17.1371 26.0629 17.3535 26.0088 17.7089 26.0088 C 17.977 26.0088 18.0982 25.9829 18.3052 25.8299 C 18.38 25.4501 18.4746 25.0892 18.3648 24.6971 C 18.1647 24.3439 18.06 24.3268 17.6493 24.2797 z "
     style="font-size:12;fill:none;fill-opacity:0.75;fill-rule:evenodd;stroke:#000000;stroke-width:1pt;"
     id="path610" />
  <path
     d="M 38.578 24.3989 C 38.5581 24.3989 38.5383 24.3989 38.5184 24.3989 C 38.6794 24.3989 38.5975 24.4028 38.2799 24.3393 C 37.8807 24.3393 37.6206 24.2839 37.3855 24.5778 C 37.2812 24.8905 37.3388 24.9876 37.5644 25.2337 C 37.6581 25.4861 37.9781 25.6999 38.1606 25.9492 C 38.3914 26.0512 38.6077 26.1534 38.8165 26.2473 C 39.0719 26.0712 39.055 26.0162 39.055 25.7107 C 39.2345 25.4163 39.1855 25.2047 39.055 24.8759 C 38.8611 24.8274 38.6844 24.5253 38.578 24.3989 z "
     style="font-size:12;fill:none;fill-opacity:0.75;fill-rule:evenodd;stroke:#000000;stroke-width:1pt;"
     id="path614" />
  <path
     d="M 25.8777 33.641 C 25.8975 33.641 25.9174 33.641 25.9373 33.641 C 25.8578 33.641 26.0963 33.641 26.1758 33.641 C 26.5336 33.641 26.8913 33.641 27.2491 33.641 C 27.6131 33.5962 27.987 33.5813 28.382 33.5813 C 28.7631 33.4861 29.0951 33.4621 29.5149 33.4621 C 29.8925 33.4621 30.2701 33.4621 30.6477 33.4621 C 31.0453 33.4621 31.4428 33.4621 31.8403 33.4621 C 32.2378 33.4621 32.6353 33.4621 33.0328 33.4621 C 33.4303 33.4621 33.8278 33.4621 34.2253 33.4621 C 34.5831 33.4621 34.9408 33.4621 35.2986 33.4621 C 35.6762 33.4621 36.0538 33.4621 36.4315 33.4621 C 36.7694 33.4621 37.1072 33.4621 37.4451 33.4621 C 37.8227 33.4621 38.2004 33.4621 38.578 33.4621 C 38.9954 33.4621 39.4128 33.4621 39.8302 33.4621 C 40.2475 33.4621 40.6649 33.4621 41.0823 33.4621 C 41.544 33.4621 41.8989 33.4791 42.2748 33.2832 C 42.4819 33.2455 42.4807 33.2562 42.6326 33.1043 C 42.9386 32.9405 43.2465 32.801 43.527 32.6273 C 43.793 32.3613 44.0664 32.049 44.3617 31.8522 C 44.638 31.4838 44.8263 31.2246 44.8984 30.7789 C 45.1151 30.2678 45.3115 29.826 45.435 29.2883 C 45.5535 28.8734 45.6479 28.4942 45.7928 28.0957 C 45.7928 27.8175 45.7928 27.5392 45.7928 27.261 "
     style="font-size:12;fill:none;fill-opacity:0.75;fill-rule:evenodd;stroke:#000000;stroke-width:1pt;"
     id="path619" />
  <path
     d="M 12.8792 32.0311 C 12.8991 32.0311 12.9189 32.0311 12.9388 32.0311 C 12.7519 32.0311 12.8668 32.0155 13.1177 32.3292 C 13.1232 32.7981 13.2195 33.0871 13.4755 33.4621 C 13.6975 33.7682 13.714 33.8643 13.714 34.2372 C 13.7626 34.5564 13.8332 34.7756 13.8332 35.1316 C 13.9262 35.4292 13.9525 35.6764 13.9525 36.026 C 13.9555 36.3981 13.9841 36.7488 14.0717 37.0993 C 14.1064 37.3942 14.1747 37.5652 14.3102 37.8148 C 14.3267 38.1775 14.4122 38.2295 14.668 38.4707 C 15.0666 38.6119 15.3643 38.8076 15.8009 38.8284 C 16.0523 38.8996 16.2857 38.9398 16.5164 39.0073 C 16.83 39.0633 17.1475 39.1507 17.4704 39.1862 C 17.8152 39.1993 18.0117 39.3019 18.3648 39.3054 C 18.7471 39.3891 19.1547 39.3651 19.5573 39.3651 C 19.9389 39.3444 20.2967 39.3054 20.6902 39.3054 C 21.0969 39.2932 21.4564 39.2458 21.8827 39.2458 C 22.2726 39.1885 22.667 39.1862 23.0752 39.1862 C 23.4529 39.1862 23.8305 39.1862 24.2081 39.1862 C 24.6056 39.1862 25.0031 39.1862 25.4007 39.1862 C 25.7783 39.1862 26.1559 39.1862 26.5335 39.1862 C 26.8317 39.1862 27.1298 39.1862 27.4279 39.1862 C 27.7737 39.3127 28.116 39.3559 28.5012 39.3651 C 29.0103 39.4479 29.5505 39.395 30.0515 39.4843 C 30.4689 39.4843 30.8863 39.4843 31.3036 39.4843 C 31.7554 39.5142 32.1472 39.6036 32.6154 39.6036 C 33.0924 39.6036 33.5694 39.6036 34.0464 39.6036 C 34.5433 39.6036 35.0402 39.6036 35.5371 39.6036 C 36.0737 39.6036 36.6103 39.6036 37.147 39.6036 C 37.6836 39.6036 38.2203 39.6036 38.7569 39.6036 C 39.1982 39.5978 39.5301 39.4726 39.9494 39.4247 C 40.3513 39.2237 40.8149 39.1109 41.2612 39.0073 C 41.5902 38.8825 41.8552 38.8184 42.1556 38.5899 C 42.418 38.4561 42.6653 38.2495 42.8115 37.9937 C 42.8778 37.6208 42.8711 37.2093 42.8711 36.8011 C 43.0003 36.5065 42.9903 36.2411 42.9903 35.9067 C 42.9903 35.5291 42.9903 35.1515 42.9903 34.7739 "
     style="font-size:12;fill:none;fill-opacity:0.75;fill-rule:evenodd;stroke:#000000;stroke-width:1pt;"
     id="path622" />
  <path
     d="M 30.8626 29.2763 C 30.2722 29.4059 29.8003 29.445 29.1761 29.445 C 28.6675 29.445 28.2176 29.4865 27.7426 29.5293 C 27.1649 29.6325 26.7614 29.7311 26.1404 29.6136 C 25.5056 29.5875 25.2129 29.3511 24.7069 29.0234 C 24.6022 28.7303 24.5747 28.5168 24.8756 28.2645 "
     style="font-size:12;fill:none;fill-opacity:0.75;fill-rule:evenodd;stroke:#000000;stroke-width:1pt;"
     id="path650" />
  <path
     d="M 10.7091 25.0601 C 10.1141 25.0601 9.58294 25.1109 9.02267 25.1445 C 8.70514 25.3667 8.10534 25.5476 7.75781 25.7347 C 7.50738 26.0999 7.41344 26.2053 7.50484 26.6623 C 7.63921 26.8773 7.62911 27.1011 7.92646 27.3369 C 8.19812 27.6959 8.30464 27.7585 8.7697 27.7585 C 9.26067 28.0313 9.62265 28.0958 10.2032 28.0958 "
     style="font-size:12;fill:none;fill-opacity:0.75;fill-rule:evenodd;stroke:#000000;stroke-width:1pt;"
     id="path658" />
  <path
     d="M 45.8723 26.9153 C 46.4985 26.6063 46.7833 26.4093 47.4744 26.4093 C 48.0267 26.4148 48.4396 26.5118 48.9079 26.6623 C 49.5201 26.8691 49.7781 27.0247 50.0041 27.5899 C 50.1076 28.2154 49.9599 28.3771 49.4982 28.7704 C 49.2596 29.1113 49.0688 29.3977 48.6549 29.445 C 48.1419 29.5921 47.7031 29.7376 47.2214 29.8666 "
     style="font-size:12;fill:none;fill-opacity:0.75;fill-rule:evenodd;stroke:#000000;stroke-width:1pt;"
     id="path661" />
</svg>
