<?xml version="1.0" encoding="UTF-8" standalone="no"?>
<!DOCTYPE svg PUBLIC "-//W3C//DTD SVG 1.0//EN"
"http://www.w3.org/TR/2001/REC-SVG-20010904/DTD/svg10.dtd">
<!-- Created with Inkscape ("http://www.inkscape.org/") -->
<svg
   xmlns="http://www.w3.org/2000/svg"
   xmlns:xlink="http://www.w3.org/1999/xlink"
   version="1.0"
   x="0"
   y="0"
   width="62.5000000"
   height="62.5000000"
   id="svg1">
  <defs
     id="defs3" />
  <path
     d="M 20.9346 18.347 C 20.1043 18.347 19.2018 18.2933 18.4224 18.4232 C 17.8202 18.566 17.1779 18.7057 16.5193 18.8038 C 15.6334 19.2305 14.6543 19.3965 13.7026 19.7173 C 13.2275 19.7525 12.8048 19.9063 12.3324 19.9457 C 11.935 20.1859 11.7237 20.3143 11.2666 20.3263 C 10.9793 20.6189 10.7231 20.8887 10.5815 21.2398 C 10.4802 21.6974 10.4292 22.0524 10.4292 22.534 C 10.4104 23.1037 10.277 23.5437 10.277 24.1326 C 10.2829 24.6892 10.3918 25.0432 10.6576 25.5029 C 10.7686 25.9152 10.9457 26.1046 11.2666 26.4164 C 11.552 26.8636 11.9101 27.1472 12.3324 27.4821 C 12.7633 27.6882 13.2121 27.837 13.7026 27.8628 C 14.2505 28.1539 14.8897 28.151 15.5297 28.1673 C 16.0696 28.1673 16.6349 28.1541 17.1283 28.2434 C 17.609 28.4519 18.1004 28.3957 18.6508 28.3957 C 19.1329 28.3957 19.6151 28.3957 20.0972 28.3957 C 20.554 28.3957 21.0107 28.3957 21.4675 28.3957 C 21.9242 28.3957 22.381 28.3957 22.8377 28.3957 C 23.4025 28.1423 23.7546 27.8725 24.3602 27.8628 C 24.6978 27.829 24.8488 27.6569 25.1976 27.6344 C 25.786 27.6214 26.2787 27.487 26.8724 27.4821 C 27.4689 27.3653 28.0028 27.2582 28.6233 27.2538 C 29.3277 27.2538 29.9807 27.1893 30.6787 27.1776 C 31.2877 27.1776 31.8967 27.1776 32.5057 27.1776 C 33.1147 27.1776 33.7237 27.1776 34.3327 27.1776 C 34.9925 27.1776 35.6522 27.1776 36.312 27.1776 C 36.9931 27.1776 37.5062 27.2225 38.139 27.406 C 38.6601 27.6019 39.2165 27.8335 39.6615 28.1673 C 39.8881 28.5463 39.8899 28.9163 39.8899 29.3853 C 39.8899 29.7913 39.8899 30.1973 39.8899 30.6033 C 39.8899 31.1234 39.9075 31.6182 39.966 32.1258 C 40.0184 32.7016 40.1804 33.12 40.1944 33.7245 C 40.3234 34.3695 40.5515 34.9273 40.7273 35.5515 C 40.8636 36.1528 41.0752 36.8082 41.2602 37.3785 C 41.3889 37.8819 41.4429 38.3944 41.4886 38.901 C 41.7013 39.3132 41.7695 39.7011 41.7931 40.1951 C 41.956 40.5651 42.0611 40.9451 42.1737 41.337 C 42.2757 41.7944 42.463 42.1746 42.5543 42.6312 C 42.6009 43.2369 42.7953 43.6472 42.8588 44.2298 C 42.9402 44.7178 43.1125 45.1463 43.2394 45.6001 C 43.3597 46.0038 43.5903 46.3377 43.6962 46.742 C 44.0761 47.0948 44.2572 47.0753 44.762 46.9703 C 45.1725 46.8513 45.6474 46.7702 46.0561 46.6658 C 46.4976 46.4324 46.7381 46.4095 47.1219 46.133 C 47.5647 45.9973 47.8978 45.7499 48.3399 45.6762 C 48.6696 45.4592 49.0319 45.3331 49.4818 45.2194 C 49.8624 44.8961 49.8624 44.8296 49.8624 44.3059 C 49.8624 43.807 49.7909 43.4199 49.7863 42.9357 C 49.6593 42.4821 49.6375 41.9953 49.634 41.4893 C 49.548 41.2056 49.5579 40.9584 49.5579 40.6519 C 49.4013 40.37 49.361 40.0844 49.3295 39.7384 C 49.2487 39.2845 49.109 38.9868 48.9489 38.5965 C 48.8813 38.2094 48.8387 37.8494 48.6444 37.5307 C 48.4227 36.9178 48.2227 36.3386 48.1115 35.7037 C 48.0034 35.2136 47.9206 34.7506 47.7309 34.2573 C 47.6774 33.7922 47.4846 33.5106 47.4264 33.0393 C 47.2555 32.5618 47.0809 32.0326 46.9696 31.5168 C 46.7729 30.9985 46.5979 30.4719 46.3606 29.9182 C 46.2011 29.4633 45.9644 28.9892 45.8277 28.5479 C 45.5292 28.0123 45.1633 27.5025 44.9903 26.8731 C 44.7279 26.429 44.4892 25.9348 44.3813 25.4267 C 44.1166 24.9266 43.9353 24.4373 43.6201 23.9804 C 43.4706 23.7493 43.1275 23.5035 42.8588 23.2952 C 42.6449 22.8139 42.4947 22.5699 42.0976 22.2295 C 41.6092 21.2665 41.1807 20.2276 40.3467 19.5651 C 39.773 19.2331 39.1933 19.0165 38.5958 18.8038 C 37.9462 18.4536 37.2959 18.1988 36.6165 17.8903 C 35.6865 17.7131 34.8402 17.4139 33.876 17.3574 C 33.6263 17.295 33.4507 17.2813 33.1908 17.2813 C 32.8518 17.027 32.6535 17.0179 32.2012 16.9768 C 31.5632 16.9329 30.8027 16.9202 30.2219 16.7484 C 29.7332 16.5964 29.089 16.6723 28.5472 16.6723 C 27.5191 16.8341 26.5412 17.0567 25.5021 17.2052 C 25.2052 17.31 24.9687 17.4463 24.6648 17.5097 C 24.1374 17.6897 23.7004 17.9396 23.1422 18.0425 C 22.7281 18.2051 22.2608 18.2541 21.772 18.2709 C 21.4908 18.3476 21.2667 18.347 20.9346 18.347 z "
     style="font-size:12;fill:none;fill-opacity:0.75;fill-rule:evenodd;stroke:#000000;stroke-width:1pt;"
     id="path562" />
  <path
     d="M 12.3324 21.8488 C 12.3324 21.8742 12.3324 21.8996 12.3324 21.925 C 12.3324 21.6945 12.3282 21.8239 12.4085 22.3056 C 12.7544 22.8349 13.0941 23.3031 13.2459 23.9042 C 13.7823 24.5679 14.057 25.2835 14.54 25.9596 C 14.8172 26.514 15.1904 26.9856 15.5297 27.4821 "
     style="font-size:12;fill:none;fill-opacity:0.75;fill-rule:evenodd;stroke:#000000;stroke-width:1pt;"
     id="path563" />
  <path
     d="M 12.1801 25.579 C 12.4789 25.1949 12.5497 25.1148 12.8653 24.8939 C 13.4332 24.197 13.8992 23.436 14.4639 22.7623 C 14.9534 22.1912 15.4996 21.661 15.9864 21.0876 C 16.0372 21.0368 16.0879 20.9861 16.1387 20.9353 "
     style="font-size:12;fill:none;fill-opacity:0.75;fill-rule:evenodd;stroke:#000000;stroke-width:1pt;"
     id="path564" />
  <path
     d="M 21.3152 20.8592 C 21.2898 20.8592 21.2645 20.8592 21.2391 20.8592 C 21.7081 21.1132 22.1192 21.4861 22.5332 21.7727 C 22.8021 22.3819 23.3598 22.87 23.7512 23.4475 C 23.9375 23.9208 24.2836 24.382 24.5886 24.8177 C 24.8903 25.1426 25.1014 25.4925 25.426 25.7312 "
     style="font-size:12;fill:none;fill-opacity:0.75;fill-rule:evenodd;stroke:#000000;stroke-width:1pt;"
     id="path565" />
  <path
     d="M 21.6197 25.2745 C 22.0571 24.7463 22.4572 24.3723 22.99 23.9804 C 23.5258 23.5273 24.0162 23.0124 24.4364 22.4578 C 24.8813 21.8698 25.3281 21.2661 25.5783 20.6308 C 25.7331 20.4213 25.7652 20.2356 25.8828 20.0218 "
     style="font-size:12;fill:none;fill-opacity:0.75;fill-rule:evenodd;stroke:#000000;stroke-width:1pt;"
     id="path566" />
  <path
     d="M 42.6304 43.3163 C 42.6558 43.2909 42.6812 43.2656 42.7066 43.2402 C 42.5101 43.4367 42.5983 43.3324 43.0872 43.0879 C 43.8066 42.8294 44.5114 42.5384 45.2187 42.2505 C 45.6739 42.023 46.0465 41.9113 46.5129 41.6415 C 47.0379 41.5091 47.5818 41.3205 48.1115 41.1848 C 48.6911 41.1905 49.2192 41.4153 49.634 41.6415 C 49.4427 42.1771 49.1036 42.3765 48.5682 42.4789 C 48.0945 42.5898 47.6598 42.7323 47.198 42.8595 C 46.9043 42.9718 46.6804 43.0118 46.3606 43.0118 C 46.0238 43.2025 45.6344 43.2204 45.2187 43.2402 C 44.6533 43.4011 44.3547 43.6056 44.0007 44.0776 C 43.7264 44.4115 43.5226 44.6352 43.4678 45.0672 C 43.5781 45.442 43.776 45.3717 44.153 45.3717 C 44.656 45.5282 44.913 45.2701 45.371 45.1433 C 45.7668 44.7899 46.1456 44.705 46.589 44.4582 C 46.9986 44.4282 47.2053 44.2621 47.5786 44.1537 C 48.1001 44.0649 48.4504 43.8836 48.8728 43.5447 C 49.0726 43.4448 49.2839 43.4152 49.4818 43.3163 "
     style="font-size:12;fill:none;fill-opacity:0.75;fill-rule:evenodd;stroke:#000000;stroke-width:1pt;"
     id="path568" />
  <path
     d="M 13.3981 28.1673 C 14.0727 28.4411 14.6382 28.7053 15.2252 29.0808 C 15.665 29.5739 16.0031 30.0277 16.2909 30.6033 C 16.5178 31.1096 16.713 31.4659 16.7477 32.0497 C 16.931 32.3521 16.8999 32.5851 16.8999 32.9632 C 16.8999 33.4453 16.8999 33.9275 16.8999 34.4096 C 16.8999 34.8156 16.8999 35.2216 16.8999 35.6276 C 16.8954 36.0385 16.8238 36.3575 16.8238 36.7695 C 16.7164 37.2076 16.6278 37.5347 16.2909 37.8352 C 15.8764 38.0425 15.9016 38.0832 15.6058 37.683 C 15.6058 37.2516 15.6058 36.8202 15.6058 36.3889 C 15.8312 35.9795 16.0054 35.6486 16.2909 35.247 C 16.507 34.7788 16.8733 34.6159 17.2806 34.3335 C 17.7153 33.9908 18.1709 33.7955 18.6508 33.4961 C 19.0926 33.2547 19.5125 32.923 19.945 32.6587 C 20.4159 32.3761 20.8157 32.0474 21.2391 31.6691 L 19.945 32.6587 C 20.4159 32.3761 20.8157 32.0474 21.2391 31.6691 L 21.3913 31.5168 C 21.7125 31.2574 21.9014 31.1307 22.0765 30.7555 C 22.3513 30.3528 22.4825 29.9605 22.5332 29.4614 C 22.5515 29.0845 22.5773 28.6648 22.6855 28.3195 "
     style="font-size:12;fill:none;fill-opacity:0.75;fill-rule:evenodd;stroke:#000000;stroke-width:1pt;"
     id="path569" />
  <path
     d="M 10.3531 25.8835 C 10.3531 25.9089 10.3531 25.9343 10.3531 25.9596 C 10.3531 25.8143 10.3531 25.3598 10.3531 26.3403 C 10.3531 26.7716 10.3531 27.203 10.3531 27.6344 C 10.3531 28.1419 10.3531 28.6494 10.3531 29.1569 C 10.4425 29.9489 10.4292 30.7753 10.4292 31.5929 C 10.4292 32.4811 10.4292 33.3692 10.4292 34.2573 C 10.4292 34.9425 10.4292 35.6276 10.4292 36.3127 C 10.4292 36.8964 10.4292 37.48 10.4292 38.0636 C 10.4292 38.5965 10.4292 39.1294 10.4292 39.6623 C 10.4292 40.1698 10.4292 40.6773 10.4292 41.1848 C 10.4292 41.6415 10.4292 42.0983 10.4292 42.555 C 10.4292 42.7073 10.4292 42.8596 10.4292 43.0118 "
     style="font-size:12;fill:none;fill-opacity:0.75;fill-rule:evenodd;stroke:#000000;stroke-width:1pt;"
     id="path570" />
  <path
     d="M 13.2459 28.0911 C 13.1929 28.0911 13.1519 28.3329 13.0175 28.5479 C 13.0175 29.0356 13.0665 29.4566 13.0936 29.9182 C 13.1737 30.4215 13.2011 30.9392 13.2459 31.4407 C 13.2459 31.9228 13.2459 32.4049 13.2459 32.8871 C 13.2459 33.3946 13.2459 33.9021 13.2459 34.4096 C 13.2459 35.0283 13.3963 35.5179 13.5504 36.0844 C 13.5728 36.5469 13.6265 36.984 13.6265 37.4546 C 13.7675 37.7132 13.7788 37.8359 13.7788 38.1398 C 13.7788 38.6473 13.7788 39.1548 13.7788 39.6623 C 13.7788 40.1698 13.7788 40.6773 13.7788 41.1848 C 13.7788 41.6415 13.7788 42.0983 13.7788 42.555 C 13.7788 42.6565 13.7788 42.7581 13.7788 42.8595 "
     style="font-size:12;fill:none;fill-opacity:0.75;fill-rule:evenodd;stroke:#000000;stroke-width:1pt;"
     id="path571" />
  <path
     d="M 12.0279 40.5758 C 12.0538 40.7468 12.1229 41.4103 12.1801 41.7938 C 12.1801 42.0983 12.1801 42.4028 12.1801 42.7073 "
     style="font-size:12;fill:none;fill-opacity:0.75;fill-rule:evenodd;stroke:#000000;stroke-width:1pt;"
     id="path572" />
  <path
     d="M 23.1422 28.5479 C 23.1422 28.7497 23.1422 29.484 23.1422 29.9182 C 23.1422 30.451 23.1422 30.9839 23.1422 31.5168 C 23.1422 32.1258 23.1422 32.7348 23.1422 33.3438 C 23.1422 33.9528 23.1422 34.5618 23.1422 35.1708 C 23.1422 35.7799 23.1422 36.3889 23.1422 36.9979 C 23.2318 37.527 23.2818 38.1399 23.3706 38.6726 C 23.3706 39.1294 23.3706 39.5861 23.3706 40.0429 C 23.3879 40.5653 23.5229 40.9584 23.5229 41.4893 C 23.5229 41.946 23.5229 42.4028 23.5229 42.8595 "
     style="font-size:12;fill:none;fill-opacity:0.75;fill-rule:evenodd;stroke:#000000;stroke-width:1pt;"
     id="path573" />
  <path
     d="M 20.4017 32.3542 C 20.4017 32.3796 20.4017 32.4049 20.4017 32.4303 C 20.4017 32.3288 20.4017 32.6333 20.4017 32.7348 C 20.4017 33.2677 20.4017 33.8006 20.4017 34.3335 C 20.4017 34.841 20.4017 35.3485 20.4017 35.856 C 20.4017 36.3635 20.4017 36.871 20.4017 37.3785 C 20.4017 37.8606 20.4017 38.3428 20.4017 38.8249 C 20.4736 39.3101 20.6159 39.6685 20.6301 40.1951 C 20.7289 40.6655 20.7784 41.1233 20.7823 41.6415 C 20.7823 42.0983 20.7823 42.555 20.7823 43.0118 C 20.7823 43.2208 20.805 43.1187 20.7062 43.3163 "
     style="font-size:12;fill:none;fill-opacity:0.75;fill-rule:evenodd;stroke:#000000;stroke-width:1pt;"
     id="path574" />
  <path
     d="M 21.9242 40.728 C 21.9242 40.7534 21.9242 40.7788 21.9242 40.8042 C 21.9242 40.7027 21.9242 41.0072 21.9242 41.1087 C 21.9242 41.54 21.9242 41.9714 21.9242 42.4028 C 21.9531 42.6052 22.0476 42.6572 22.0765 42.8595 "
     style="font-size:12;fill:none;fill-opacity:0.75;fill-rule:evenodd;stroke:#000000;stroke-width:1pt;"
     id="path575" />
  <path
     d="M 34.4089 27.406 C 34.3581 27.4568 34.3074 27.5075 34.2566 27.5583 C 34.5395 27.2754 34.4286 27.337 34.2566 27.9389 C 34.2566 28.5325 34.1792 29.037 34.1043 29.6137 C 34.1043 30.3242 34.1043 31.0347 34.1043 31.7452 C 34.1043 32.4049 34.1043 33.0647 34.1043 33.7245 C 34.0883 34.5519 33.9645 35.3118 33.9521 36.1605 C 33.9521 36.6426 33.9521 37.1247 33.9521 37.6069 C 33.9521 38.0636 33.9521 38.5204 33.9521 38.9771 C 33.9521 39.4846 33.9521 39.9921 33.9521 40.4996 C 33.9521 40.8549 33.9521 41.2102 33.9521 41.5654 "
     style="font-size:12;fill:none;fill-opacity:0.75;fill-rule:evenodd;stroke:#000000;stroke-width:1pt;"
     id="path576" />
  <path
     d="M 36.4643 27.9389 C 36.4401 28.1007 36.3881 28.6849 36.3881 29.0808 C 36.3881 29.5306 36.4184 29.9442 36.4643 30.3749 C 36.5201 30.8854 36.6006 31.3764 36.6165 31.8974 C 36.6165 32.5064 36.6165 33.1154 36.6165 33.7245 C 36.6165 34.2573 36.6165 34.7902 36.6165 35.3231 C 36.6165 35.8814 36.6165 36.4396 36.6165 36.9979 C 36.6165 37.5149 36.6003 38.0278 36.6926 38.5204 C 36.7828 39.0433 36.8449 39.4847 36.8449 40.0429 C 36.8449 40.4235 36.8449 40.8042 36.8449 41.1848 "
     style="font-size:12;fill:none;fill-opacity:0.75;fill-rule:evenodd;stroke:#000000;stroke-width:1pt;"
     id="path577" />
  <path
     d="M 35.2462 39.1294 C 35.2462 39.6369 35.2462 40.1444 35.2462 40.6519 C 35.2462 40.8549 35.2462 41.0579 35.2462 41.2609 "
     style="font-size:12;fill:none;fill-opacity:0.75;fill-rule:evenodd;stroke:#000000;stroke-width:1pt;"
     id="path578" />
  <path
     d="M 39.5093 28.0911 C 39.2002 28.5548 39.2048 28.5702 39.2048 29.0808 C 39.2048 29.606 39.165 30.0939 39.1287 30.6033 C 39.1287 31.0854 39.1287 31.5676 39.1287 32.0497 C 39.1287 32.5572 39.1287 33.0647 39.1287 33.5722 C 39.1287 34.0543 39.1287 34.5365 39.1287 35.0186 C 39.1287 35.5007 39.1287 35.9829 39.1287 36.465 C 39.1287 36.9471 39.1287 37.4292 39.1287 37.9114 C 39.1287 38.3681 39.1287 38.8249 39.1287 39.2816 C 39.1287 39.7384 39.1287 40.1951 39.1287 40.6519 C 39.1287 40.7788 39.1287 40.9056 39.1287 41.0325 "
     style="font-size:12;fill:none;fill-opacity:0.75;fill-rule:evenodd;stroke:#000000;stroke-width:1pt;"
     id="path579" />
  <path
     d="M 37.9868 38.9771 C 37.9868 39.1616 37.9868 39.857 37.9868 40.2713 C 37.9868 40.4743 37.9868 40.6773 37.9868 40.8803 "
     style="font-size:12;fill:none;fill-opacity:0.75;fill-rule:evenodd;stroke:#000000;stroke-width:1pt;"
     id="path580" />
</svg>
